{
  "trackerLog": "requestId=\"c420dd00-a233-11e8-8dd2-0e056f6337ec\", requestDt=\"Fri Aug 17 11:39:45 EDT 2018\", tenantId=\"L1\", applicationName=\"Twilio\", originatingFlowName=\"post:/messages/{messagingServiceId}/{apiKey}/inbound/callback:application/x-www-form-urlencoded\", httporigin=\"null\", httprelativepath=\"/sms/1.2/api/messages/MG9345bf0d2e0169c9af28193405c2f896/sms12345/inbound/callback\", httpmethod=POST, contentType=\"application/x-www-form-urlencoded\", retrievedTenantId=\"L1\", contactPoint=\"+12673678745\"",
  "messageId": "SM1bcbf2ab158f18ae49ad3e6db53bc66b",
  "direction": "inbound",
  "contactPoint": "+12673678745",
  "keyword": "Start",
  "message": "Start",
  "from": "+12673678745",
  "fromCity": "",
  "fromState": "PA",
  "fromCountry": "US",
  "fromZip": "",
  "to": "+18154768394",
  "toCity": "WILMINGTON",
  "toState": "IL",
  "toCountry": "US",
  "toZip": "60481",
  "status": "received",
  "preferenceType": "Insurance",
  "deliveryType": "sms",
  "messagingServiceName": "Insurance_agent1@stateauto.com-1.2",
  "messagingServiceId": "MG9345bf0d2e0169c9af28193405c2f896",
  "serviceProvider": "twilio",
  "channel": "sms-ui",
  "senderId": "agent1@stateauto.com",
  "clientCallbackEndpoint": {
    "inbound": [
      
    ],
    "outbound": [
      
    ]
  },
  "tenantId": "L1",
  "dateCreated": "2018-08-17T11:39:45-04:00",
  "dateUpdated": "2018-08-17T11:39:45-04:00"
}