{
  "SmsSid": "SM3b20d5bff8474621231e08c0f638ef73",
  "From": "+16144013672",
  "ApiVersion": "2010-04-01",
  "To": "+16147874856",
  "SmsStatus": "sent",
  "AccountSid": "ACfcfeaw92bdfdbf32aceehjk1c5d803473",
  "MessageStatus": "sent",
  "MessagingServiceSid":"MGadaa00719e2bec80ef8583779b6e414a",
  "MessageSid": "SM3b20d5bff8474621231e08c0f638ef73"
}