{
    "sid": "SM0293a839b5de40dc924e4ead01697b0f",
    "date_created": "Mon, 26 Feb 2018 03:25:40 +0000",
    "date_updated": "Mon, 26 Feb 2018 03:25:40 +0000",
    "date_sent": null,
    "account_sid": "ACff0c33863c62e99ccf71562e48ab1dd1",
    "to": "+12673678745",
    "from": "+19892567170",
    "messaging_service_sid": "MG87ef5fc978d4462124a5c31ab8e79e79",
    "body": "Sent from your Twilio trial account - Test",
    "status": "accepted",
    "num_segments": "0",
    "num_media": "0",
    "direction": "outbound-api",
    "api_version": "2010-04-01",
    "price": null,
    "price_unit": null,
    "error_code": null,
    "error_message": null,
    "uri": "/2010-04-01/Accounts/ACff0c33863c62e99ccf71562e48ab1dd1/Messages/SM0293a839b5de40dc924e4ead01697b0f.json",
    "subresource_uris": {
        "media": "/2010-04-01/Accounts/ACff0c33863c62e99ccf71562e48ab1dd1/Messages/SM0293a839b5de40dc924e4ead01697b0f/Media.json"
    }
}