{
    "inputMessageMetadata": {
        "messagePayload": {
            "connectorName": "#_custom_mule_metadata_type_#",
            "typeId": "InboundCallbackMessageMQ"
        }
    },
    "outputMessageMetadata": {},
    "id": "3b0de830-79fa-4738-890d-2faec05596ad",
    "version": "5.2.0.0"
}