{
    "inputMessageMetadata": {
        "flowVariables": {
            "responseId": {
                "connectorName": "#_custom_mule_metadata_type_#",
                "typeId": "responseId"
            }
        }
    },
    "outputMessageMetadata": {},
    "id": "493752b0-d24a-48ae-9a7b-7a0a2654ff42",
    "version": "5.2.0.0"
}