{
    "inputMessageMetadata": {
        "messagePayload": {
            "connectorName": "#_custom_mule_metadata_type_#",
            "typeId": "SendBulkRequest"
        }
    },
    "outputMessageMetadata": {},
    "id": "7c532b51-20a6-468e-ad06-a6d1974f6568",
    "version": "5.2.0.0"
}