{
  "requestId": "Used_for_tracking",
  "requestDt": "2018-02-07T10:08:00+08:00",
  "body": {
    "mobileNumber": "8763458746",
    "preferenceType": "Insurance",
    "attributes":{
        "attribute1":"val1",
        "attribute<n>":"val<n>"
      },
    "templateId":"messageTemplateId",
    "message":"SomeMessage"
  },
  "doNotDisturb":true,
  "doNotDisturbMetadata": {
    "messageContext":"use_case_L1",
    "timeZone":"US/Eastern"
  }
}