{
  "requestId": "Used_for_tracking",
  "requestDt": "2018-02-07T10:08:00+08:00",
  "body": {
    "preferenceType": "Insurance",
    "message": "Reply YES to confirm, NO to stop. HELP for further info.",
    "keywordsTemplateMapping": {
      "YES":"TemplateIdYES",
      "Y":"TemplateIdYES",
      "NO":"TemplateIdNO",
      "N":"TemplateIdNO",
      "HELP":"TemplateIdHELP"
    }
  }
}