{
  "responseId":"Used_for_tracking",
  "responseStatus": "success",
  "responseDt":"2018-02-07T10:08:00+08:00",
  "start":1,
  "size":10,
  "total":10000,
  "results":[
    {
      "contactPoint":"",
      "preferenceType":"",
      "applicationName":"",
      "from":"",
      "to":"",
      "message": "",
      "status":"accepted",
      "direction":"inbound",
      "createdDt":"2018-02-07T10:08:00+08:00",
      "updatedDt":"2018-02-07T10:08:00+08:00"
    }
  ]
}