{
  "responseId":"Used_for_AgentId",
  "responseStatus": "success",
  "responseDt":"2018-02-07T10:08:00+08:00",
  "results": [{
    "senderId": "michael.jackson@stateauto.com",
    "contactPoint": "+16147874856",
    "contactName":"A",
    "numberOfMessages": 1,
    "latestDate": "2018-02-07T10:08:00+08:00",
    "id": "1234"
    },
    {
      "senderId": "michael.jackson@stateauto.com",
      "contactPoint": "+16147879393",
      "contactName":"B",
      "numberOfMessages": 1,
      "latestDate": "2018-02-07T10:08:00+08:00",
      "id": "12345"
    }]
}