{
  "responseId":"Used_for_tracking",
  "responseStatus": "success",
  "responseDt":"2018-02-07T10:08:00+08:00",
  "results": [{
    "templateId": "BILLINGCONFIRMATION",
    "preferenceType": "Insurance",
    "message": "Reply YES to confirm, NO to stop. HELP for further info.",
    "keywordsTemplateMapping": {
      "YES":"TemplateIdYES",
      "Y":"TemplateIdYES",
      "NO":"TemplateIdNO",
      "N":"TemplateIdNO",
      "HELP":"TemplateIdHELP"
    }
  }]
}